{
  "type": "service_account",
  "project_id": "texttospeech-200716",
  "private_key_id": "2bc0e4b4ee161cf08da7210c7542d329cad5429f",
  "private_key": "-----BEGIN PRIVATE KEY-----\nMIIEvgIBADANBgkqhkiG9w0BAQEFAASCBKgwggSkAgEAAoIBAQDEcrqYSJccpbdw\nwtq+KEVqmGfIjNTu3ATKLYVznt4xQwa0ryRwQTB4/hh/Wu9JST+JoBT0XU7yKGF9\nH5VS0eBkKnMtykS0zYkzGcgSln+mLZ6tuqRyFG4/YBNy0qp6dsGUQZjnOJHwB5TB\n3lc0MF1WkjHBfVL5a5v/vCebYlfiG9P5Jsh3TjURNVvUp3+cV3m9vuNiiav3sxMi\nVm8QF1/0wSobBPSz6MV3RDWc1IcgWe7Z/ZQGoWKZJ5fDfZPJwr1oa4YvjWDM4DVp\njMtMyseK+IbSG8Kyo7Dd/S/2zbzX/1GzureD/5tgFyOzZaIDLye694f5HVEeyKuy\nsEIIqAbJAgMBAAECggEADz6e+8/QSDUU8+9vFage4OuETEQfhwy0Y3MeYs9Oi1CZ\n/d4EjCCG8DC5unJWVN/WCipNzfvKs1COZi0UA6oNSYCg0QocBFLZ5YkH5Wdf7wel\nw3ITLlYnCwx73eJ6v8ek9IoVoUXaz19rPBMyvbZOG/h623rL/FaNM86IXU7HpqBi\n532v2jBUhUfhptrDhCoIAcbKQ4z8OCxIzMdsGVp4oS87o8Ix6RogT/rakQ6+THfx\njM7ElCT7inm9AYXad7XcGyHF43FXH1uB7NXINFvgceZE16EqRIFyNvLSTLhWdWXR\nzWdXcG/oP1Dm2+dmyaj9Vqgc997ICnKRlWD2kT1GAQKBgQDh7dO4wKtVRBw9JXth\ngDnDsAqaGq/px6B7hLP500Ui9DsKD8cWJVv6RFjZF7gMToufdfml5wtKO4E+T62Q\nlytFM45b8vjPDEEej0IgHC2rOZ8adawNtlKYtux9xKitqr6cA+1jQgENIHzjcFoW\nAH/SQILm3hs9IcnNu4nXmBxdAQKBgQDemGN3adAt59T0aio5UglxJviNq86Lhtci\nI6UbVbwAvbvn/pCtZpF0Rk2hAe5D6qwxh0KeIVHhLHgnYR6Z5w65/APCeB3/dsVb\nKuVANGXABikgKAkTWIXcfw1PnzR3Rhroyt0HjkZaCbwX+iT4S1T9/FoYd6Cxjkyy\n2supUAYByQKBgQCNMzUyb3/lH1dCw+0zh48ShTBrFajBxBjBebN9vJOl/9vyMuAr\nMBgm9pZMv60wS9qpQ3NOQ3Lj5wKkbem8xy2s50beoqDrze3Y6pHaPaIxNCcCw25P\nd5ZxiUmOZN1DBMZx/WZctYCwspA7GRnETHWWcukc3s1JTJeyM7Y3fwKjAQKBgBvA\nri4WQEFo9TEgB3GsG8dCz5yCPjdBMZNtFEnLL6x7+3CaWZl0/0+a8FTRs8499Qgb\n0B99EgNcEwL95d3UZA6mMCXP6hWOzl5mg7y0i7ccTYZX14HU+KOcJ6G0vMreL760\nhEhL4dOaARyQMInQgqFEFEuWpq9ciY2HH/tVIdqZAoGBALazVZlBJjNZosNI6R2D\n3zv9KvPZIVG1TCvs7tXAldQWn50lDU7CGIWz+/+/sjGGXcBFrsd0gvs1qP6ULDg+\n59IteKWDXQupf7AiZajM/NayHVK1xxb6+eLbStkdH+2rYXUIZHR9XPtQHQGFsDGO\nKce8Glw9ybQ3w1KRlJ1mxQr+\n-----END PRIVATE KEY-----\n",
  "client_email": "starting-account-rodoylcyiziu@texttospeech-200716.iam.gserviceaccount.com",
  "client_id": "117415386008585810608",
  "auth_uri": "https://accounts.google.com/o/oauth2/auth",
  "token_uri": "https://accounts.google.com/o/oauth2/token",
  "auth_provider_x509_cert_url": "https://www.googleapis.com/oauth2/v1/certs",
  "client_x509_cert_url": "https://www.googleapis.com/robot/v1/metadata/x509/starting-account-rodoylcyiziu%40texttospeech-200716.iam.gserviceaccount.com"
}
