{
  "type": "service_account",
  "project_id": "aicoe-gcp",
  "private_key_id": "cc80169a60db6528f0c1ccdf457aed777fdd3b00",
  "private_key": "-----BEGIN PRIVATE KEY-----\nMIIEvgIBADANBgkqhkiG9w0BAQEFAASCBKgwggSkAgEAAoIBAQDP04+cJnhxcr1v\nng/KZGtVOQbejIrtcfHu0xCzNnE31sbg8bOFPnsuxummgiXxdLGmiKgh7XTAR4Io\nCsWLkEqN2Zz5eHxsswCCH2xWSbFH5Bhj1Y68952huj0FOCZGAP6RPpwHx/4zDIJx\n7QmCF6XgZz4eMrK8FpfafMzwvYCv8dcAfyWSIfBBZvzYFLyZ1wy8dtlU+r+YRSdo\nezhKxYQEav3PYbCGgzaQsdEt8C4biGxKVExuFOeJOm63pxoAsTs71G4yTzPgXpm8\nk1GnCOnJvHOs4y/L5VQ5Fd9qbOSnu1wJAGcdFPRNopZWzjdHc1QbxAIQmiHw7u4y\nwh1jMGrrAgMBAAECggEANRJxug6Y81+5wKc8oRLD1h+aAXsif0B55+M+gIWGpBvU\n7dzLW1t5WZiyUjMqPV7vfvem+AMLrY6VTmRxzhIq9856p7p9C8UqfBBKOj7XZuR4\n1gXTTa5uMr68lnigTYAzgiPa9KG96ItpRG6j3vTrB0NWOZ/4xM+AN+tm6pN6KXPD\nAMUo2qG4DGh1+CDvHMkeH2QlO7o7Pxvfnqn6nAcbaJgQoGHWzs3WIem9anXt1dTy\nt3ZiXupEoKOLgJZNeSq4X5FWfFcZQYeR0x9p9+zpUwWVqO6b7ICcm1Q8SJ/AeP+/\nqBvGhq05CQFGzVrg84Iar3Z/3njzDzSuSmSax0tAAQKBgQDqtHC9TVRRJI1XxV6r\nE1m6kWhAZFw2hN2bYCcuNOTIjiDGBCEftUC6VT2TJYq3P3PKHFGEqX2ldKTPytvI\nq3fcGfCYb0qchuxvL7m6FQkuuQ2urT9I0b7bmXK7bFUkooAxReuiErB17RdvI0p+\nsfNmLAnDEG5faDEaVVuGwNyHAQKBgQDirs6gkAWgXXRJCod07OkV1N+JR0QeeF+8\nFeMSUJbzgzVGGsFvRyd8+GWRbO8gh9jJJgo3iK41rS2qHrGmRDYqmao6Yt8PYrvI\nPsIkL0NCpzcz46yjgM+xdz3yHP2rFWF1iGm3TCu3y9PYK6g2ppW9NXX5LFWWWxnj\niuDhV9V96wKBgQCGJKU+/MCRM/P401ydKI0jPdI442N04ZGLKXSbSy3rlpgStO99\noOmi1e9Ad7eFrqVuQasxyHGArF86SDY/xgjWapkBdrJNLixaDAv51+YMp0WzrV87\nLm4IMvbJOkybiKj+AHmBg28Jp326TpBYQzrbDZZyv6RlsTZHV7vdE8O3AQKBgHSC\nDEmSPJIT9nSkKML8EUDbTJkuO+C9VddCGJeNPEiko3kIv2sGU1F0CiAYsT8zE0Uv\nfAjXA1MrU1EgvYYLgRucJ1YjAyrRQFrHhtk6QYO8li7hUhYnWpiIBRqvs+F+97yF\nBHDlgYLSDGwK5EZSkJvTInOTSdohsMi21KZ9kolJAoGBANij4Q2E97eQTz7EayUo\njnrOx1M2gAez149uyYR4Hf7iXKYuMXgNH1kipufVrZwRfpykzGBm6jwDte6tLOpO\n4SADnoanBXefnKbOFCNLSUytL80eBma77K+s4Utae5snmgWvTMk+0wRv+xlLtwCj\ndMRcnHsG8UVq8V0wIOEuyOpZ\n-----END PRIVATE KEY-----\n",
  "client_email": "aicoe-gcp@aicoe-gcp.iam.gserviceaccount.com",
  "client_id": "111530393417970921951",
  "auth_uri": "https://accounts.google.com/o/oauth2/auth",
  "token_uri": "https://oauth2.googleapis.com/token",
  "auth_provider_x509_cert_url": "https://www.googleapis.com/oauth2/v1/certs",
  "client_x509_cert_url": "https://www.googleapis.com/robot/v1/metadata/x509/aicoe-gcp%40aicoe-gcp.iam.gserviceaccount.com"
}
